{"hash":"6a82f90613e8865f6480dbd97f75fe7262fa98bf","data":{"tag":{"title":"python","belongsTo":{"totalCount":23,"pageInfo":{"totalPages":2,"currentPage":2},"edges":[{"node":{"id":"a3e94e8e0c1ecef59706e217d3eb8203","title":"Programming Intern at Belcan Engineering","path":"/experiences/programming-intern-at-belcan-engineering/","company":"Belcan Engineering","position":"Programming Intern","excerpt":"Designed automation software for error reporting. Built software to detect anomalous implementation and design requirements to ensure designs met government and industry standards.","subtitle":"","date":"2017-01-10T00:00:00.000Z","top":null,"github":"","devpost":"","fileInfo":{"directory":"work"},"tags":[{"title":"python","path":"/tag/python/"},{"title":"perl","path":"/tag/perl/"},{"title":"java","path":"/tag/java/"},{"title":"vbscript","path":"/tag/vbscript/"},{"title":"automation","path":"/tag/automation/"},{"title":"reporting","path":"/tag/reporting/"}]}},{"node":{"id":"c2a510f488bb5e0bbcf3a2332a2f9700","title":"KramerBot","path":"/experiences/kramer-bot/","company":"","position":"","excerpt":"A chatbot for assisting in psychology studies, written in Rivescript.","subtitle":"A chatbot for assisting in psychology studies","date":"2016-09-10T00:00:00.000Z","top":null,"github":"","devpost":"","fileInfo":{"directory":"projects"},"tags":[{"title":"python","path":"/tag/python/"},{"title":"rivescript","path":"/tag/rivescript/"},{"title":"chatbot","path":"/tag/chatbot/"}]}},{"node":{"id":"2ddb8d05f41a1c5167acecfc978fe7f1","title":"Research Assistant at University of Kentucky Psychology Department","path":"/experiences/research-assistant-at-university-of-kentucky-psychology-department/","company":"University of Kentucky Psychology Department","position":"Research Assistant","excerpt":"Provided insight for guiding human interaction in creativity studies. Developed a chatbot for aiding research studies using chat data gathered from Discord servers. Created virtual chat agents inside Second Life game for studies.","subtitle":"","date":"2016-09-02T00:00:00.000Z","top":null,"github":"","devpost":"","fileInfo":{"directory":"work"},"tags":[{"title":"python","path":"/tag/python/"},{"title":"mathematica","path":"/tag/mathematica/"},{"title":"chatbots","path":"/tag/chatbots/"},{"title":"big-data","path":"/tag/big-data/"},{"title":"data-science","path":"/tag/data-science/"},{"title":"research","path":"/tag/research/"}]}}]}}},"context":{}}